Pengaruh Nilai Tukar dan Total Produksi Terhadap Nilai Ekpor Kopi Indonesia.
…
\[ Y = \beta_0 + \beta_1X_1 + \beta_2X_2 + \beta_3X_3 + \beta_4X_4 + \epsilon \]

dimana: - \(Y\) adalah Nilai Ekspor Kopi Indonesia. - \(X_1\) adalah Nilai Tukar. - \(X_2\) adalah Harga Jual per Ton. - \(X_3\) adalah Total Produksi Kopi di Indonesia. - \(X_4\) adalah Volume Ekspor. - \(\beta_0\) adalah konstanta. dan - \(e\) adalah nilai error

0.4 Pembahasan

0.4.1 Pembahasan masalah

0.4.1.1 Plot dan Data

#impor dataset
read_excel("kopi2.xlsx")

# A tibble: 23 × 6
   tahun    volt      ekspor  kurs   prodt    hargat
   <dbl>   <dbl>       <dbl> <dbl>   <dbl>     <dbl>
 1  2000 326256  3252713635   9595 544574   8731450 
 2  2001 346941. 3614740663. 10400 569624.  6262260 
 3  2002 368937. 4017061298.  8940 595827.  6112260 
 4  2003 392327. 4464160221.  8465 623235.  6706983.
 5  2004 417201. 4961021253.  9290 651904.  7359572.
 6  2005 443651. 5513182919.  9830 681892.  8075659.
 7  2006 471779. 6126800178.  9020 713259.  8861420.
 8  2007 501690. 6808713038.  9419 746068.  9723637.
 9  2008 533497. 7566522799. 10950 780388. 10669746.
10  2009 567320. 8408676786.  9400 816285. 11707913.
# ℹ 13 more rows
…
